{
    "data": [
      {
        "edition": null,
        "exam": "Not Included",
        "registration_id": null,
        "batchOffer": "HurryUp! Filling Fast",
        "level": "",
        "name": "PMP Certification Course",
        "youtubeUrl": "https://www.youtube.com/watch?v=4QGWfw8IqA4",
        "mode": "Live Virtual Classroom",
        "mode_const": "ONLINE",
        "early_bird_offer": "Special Offer for 10%",
        "early_bird_offer_end_date": "",
        "early_bird_offer_value": 115,
        "early_bird_offer_strike_price": 1150,
        "priceCurrency": "USD",
        "registration_close_on": "2024-08-23 00:00:00",
        "registration_end_days": 1,
        "registration_closed": false,
        "time_zone": "EST",
        "timing": "09:00 - 17:00",
        "event_id": "INL15290",
        "language": "English",
        "exam_included": false,
        "course_version": "Training Only",
        "course_version_name": null,
        "course_label": "Schedules for PMP Certification",
        "course_accreditation_id": null,
        "course_price": "USD 1150",
        "course_offer_price": "USD 1035",
        "schedule_dates": [
          {
            "name": "Aug-2024",
            "year": "2024",
            "month": "Aug",
            "event_date": [
              {
                "date": "26",
                "day": "Mon"
              },
              {
                "date": "27",
                "day": "Tue"
              },
              {
                "date": "28",
                "day": "Wed"
              },
              {
                "date": "29",
                "day": "Thu"
              }
            ]
          }
        ],
        "service_event_id": 16815,
        "service_event_detail_id": 1812861,
        "schedule_price": 1150,
        "price": 1035,
        "months": [8],
        "event_start_date": "26-08-2024 00:00",
        "event_end_date": "29-08-2024 00:00",
        "event_type": "Weekday",
        "individual_offer_id": 37,
        "individual_discount": 10,
        "individual_offer_type": "SPECIAL OFFER",
        "purchased_participant_count": "2",
        "people_enrolled": "2 people have enrolled for this Course",
        "trainer_details": null,
        "is_first": true,
        "isSpecialOffer": true,
        "special_offer_value": 115,
        "view_offers": [
          {
            "text": "Pay Once, Attend Twice"
          },
          {
            "text": "Group discount up to 15% applicable"
          },
          {
            "text": "Special offer of 10% + 4% (Processing Fee waiver) applicable"
          }
        ],
        "event_coupon_code": null,
        "event_coupon_discount_percentage": null,
        "isCouponOffer": false,
        "confirm_run": null
      },
      {
        "edition": null,
        "exam": "Not Included",
        "registration_id": null,
        "batchOffer": "HurryUp! Filling Fast",
        "level": "",
        "name": "PMP Certification Course",
        "youtubeUrl": "https://www.youtube.com/watch?v=4QGWfw8IqA4",
        "mode": "Live Virtual Classroom",
        "mode_const": "ONLINE",
        "early_bird_offer": null,
        "early_bird_offer_end_date": "",
        "early_bird_offer_value": null,
        "early_bird_offer_strike_price": null,
        "priceCurrency": "USD",
        "registration_close_on": "2024-09-06 00:00:00",
        "registration_end_days": 15,
        "registration_closed": false,
        "time_zone": "EST",
        "timing": "09:00 - 17:00",
        "event_id": "INL15291",
        "language": "English",
        "exam_included": false,
        "course_version": "Training Only",
        "course_version_name": null,
        "course_label": "Schedules for PMP Certification",
        "course_accreditation_id": null,
        "course_price": "USD 1150",
        "course_offer_price": "USD 1150",
        "schedule_dates": [
          {
            "name": "Sep-2024",
            "year": "2024",
            "month": "Sep",
            "event_date": [
              {
                "date": "09",
                "day": "Mon"
              },
              {
                "date": "10",
                "day": "Tue"
              },
              {
                "date": "11",
                "day": "Wed"
              },
              {
                "date": "12",
                "day": "Thu"
              }
            ]
          }
        ],
        "service_event_id": 16816,
        "service_event_detail_id": 1812978,
        "schedule_price": 1150,
        "price": 1150,
        "months": [9],
        "event_start_date": "09-09-2024 00:00",
        "event_end_date": "12-09-2024 00:00",
        "event_type": "Weekday",
        "individual_offer_id": 0,
        "individual_discount": 0,
        "individual_offer_type": "",
        "purchased_participant_count": 0,
        "people_enrolled": "0 people have enrolled for this Course",
        "trainer_details": null,
        "is_first": false,
        "isSpecialOffer": false,
        "special_offer_value": null,
        "view_offers": [
          {
            "text": "Pay Once, Attend Twice"
          },
          {
            "text": "Group discount up to 15% applicable"
          },
          {
            "text": "Coupon code INVL10 with 10% discount applicable"
          }
        ],
        "event_coupon_code": "INVL10",
        "event_coupon_discount_percentage": 10,
        "isCouponOffer": true,
        "confirm_run": null
      },
      {
        "edition": null,
        "exam": "Not Included",
        "registration_id": null,
        "batchOffer": "HurryUp! Filling Fast",
        "level": "",
        "name": "PMP Certification Course",
        "youtubeUrl": "https://www.youtube.com/watch?v=4QGWfw8IqA4",
        "mode": "Live Virtual Classroom",
        "mode_const": "ONLINE",
        "early_bird_offer": null,
        "early_bird_offer_end_date": "",
        "early_bird_offer_value": null,
        "early_bird_offer_strike_price": null,
        "priceCurrency": "USD",
        "registration_close_on": "2024-09-11 00:00:00",
        "registration_end_days": 20,
        "registration_closed": false,
        "time_zone": "EST",
        "timing": "09:00 - 17:00",
        "event_id": "INL15292",
        "language": "English",
        "exam_included": false,
        "course_version": "Training Only",
        "course_version_name": null,
        "course_label": "Schedules for PMP Certification",
        "course_accreditation_id": null,
        "course_price": "USD 1150",
        "course_offer_price": "USD 1150",
        "schedule_dates": [
          {
            "name": "Sep-2024",
            "year": "2024",
            "month": "Sep",
            "event_date": [
              {
                "date": "14",
                "day": "Sat"
              },
              {
                "date": "15",
                "day": "Sun"
              },
              {
                "date": "21",
                "day": "Sat"
              },
              {
                "date": "22",
                "day": "Sun"
              }
            ]
          }
        ],
        "service_event_id": 16817,
        "service_event_detail_id": 1813095,
        "schedule_price": 1150,
        "price": 1150,
        "months": [9],
        "event_start_date": "14-09-2024 00:00",
        "event_end_date": "22-09-2024 00:00",
        "event_type": "Weekend",
        "individual_offer_id": 0,
        "individual_discount": 0,
        "individual_offer_type": "",
        "purchased_participant_count": 0,
        "people_enrolled": "0 people have enrolled for this Course",
        "trainer_details": null,
        "is_first": false,
        "isSpecialOffer": false,
        "special_offer_value": null,
        "view_offers": [
          {
            "text": "Pay Once, Attend Twice"
          },
          {
            "text": "Group discount up to 15% applicable"
          },
          {
            "text": "Coupon code INVL10 with 10% discount applicable"
          }
        ],
        "event_coupon_code": "INVL10",
        "event_coupon_discount_percentage": 10,
        "isCouponOffer": true,
        "confirm_run": null
      },
      {
        "edition": null,
        "exam": "Not Included",
        "registration_id": null,
        "batchOffer": "HurryUp! Filling Fast",
        "level": "",
        "name": "PMP Certification Course",
        "youtubeUrl": "https://www.youtube.com/watch?v=4QGWfw8IqA4",
        "mode": "Live Virtual Classroom",
        "mode_const": "ONLINE",
        "early_bird_offer": null,
        "early_bird_offer_end_date": "",
        "early_bird_offer_value": null,
        "early_bird_offer_strike_price": null,
        "priceCurrency": "USD",
        "registration_close_on": "2024-09-20 00:00:00",
        "registration_end_days": 29,
        "registration_closed": false,
        "time_zone": "EST",
        "timing": "09:00 - 17:00",
        "event_id": "INL15293",
        "language": "English",
        "exam_included": false,
        "course_version": "Training Only",
        "course_version_name": null,
        "course_label": "Schedules for PMP Certification",
        "course_accreditation_id": null,
        "course_price": "USD 1150",
        "course_offer_price": "USD 1150",
        "schedule_dates": [
          {
            "name": "Sep-2024",
            "year": "2024",
            "month": "Sep",
            "event_date": [
              {
                "date": "23",
                "day": "Mon"
              },
              {
                "date": "24",
                "day": "Tue"
              },
              {
                "date": "25",
                "day": "Wed"
              },
              {
                "date": "26",
                "day": "Thu"
              }
            ]
          }
        ],
        "service_event_id": 16818,
        "service_event_detail_id": 1813212,
        "schedule_price": 1150,
        "price": 1150,
        "months": [9],
        "event_start_date": "23-09-2024 00:00",
        "event_end_date": "26-09-2024 00:00",
        "event_type": "Weekday",
        "individual_offer_id": 0,
        "individual_discount": 0,
        "individual_offer_type": "",
        "purchased_participant_count": 0,
        "people_enrolled": "0 people have enrolled for this Course",
        "trainer_details": null,
        "is_first": false,
        "isSpecialOffer": false,
        "special_offer_value": null,
        "view_offers": [
          {
            "text": "Pay Once, Attend Twice"
          },
          {
            "text": "Group discount up to 15% applicable"
          }
        ],
        "event_coupon_code": null,
        "event_coupon_discount_percentage": null,
        "isCouponOffer": false,
        "confirm_run": null
      },
      {
        "edition": null,
        "exam": "Not Included",
        "registration_id": null,
        "batchOffer": "HurryUp! Filling Fast",
        "level": "",
        "name": "PMP Certification Course",
        "youtubeUrl": "https://www.youtube.com/watch?v=4QGWfw8IqA4",
        "mode": "Live Virtual Classroom",
        "mode_const": "ONLINE",
        "early_bird_offer": null,
        "early_bird_offer_end_date": "",
        "early_bird_offer_value": null,
        "early_bird_offer_strike_price": null,
        "priceCurrency": "USD",
        "registration_close_on": "2024-10-11 00:00:00",
        "registration_end_days": 44,
        "registration_closed": false,
        "time_zone": "EST",
        "timing": "09:00 - 17:00",
        "event_id": "INL15605",
        "language": "English",
        "exam_included": false,
        "course_version": null,
        "course_version_name": null,
        "course_label": null,
        "course_accreditation_id": null,
        "course_price": "USD 1150",
        "course_offer_price": "USD 1150",
        "schedule_dates": [
          {
            "name": "Oct-2024",
            "year": "2024",
            "month": "Oct",
            "event_date": [
              {
                "date": "14",
                "day": "Mon"
              },
              {
                "date": "15",
                "day": "Tue"
              },
              {
                "date": "16",
                "day": "Wed"
              },
              {
                "date": "17",
                "day": "Thu"
              }
            ]
          }
        ],
        "service_event_id": 16530,
        "service_event_detail_id": 1659810,
        "schedule_price": 1150,
        "price": 1150,
        "months": [10],
        "event_start_date": "14-10-2024 00:00",
        "event_end_date": "17-10-2024 00:00",
        "event_type": "Weekday",
        "individual_offer_id": 0,
        "individual_discount": 0,
        "individual_offer_type": "",
        "purchased_participant_count": 0,
        "people_enrolled": "0 people have enrolled for this Course",
        "trainer_details": null,
        "is_first": false,
        "isSpecialOffer": false,
        "special_offer_value": null,
        "view_offers": [
          {
            "text": "Pay Once, Attend Twice"
          },
          {
            "text": "Group discount up to 15% applicable"
          }
        ],
        "event_coupon_code": null,
        "event_coupon_discount_percentage": null,
        "isCouponOffer": false,
        "confirm_run": null
      },
      {
        "edition": null,
        "exam": "Not Included",
        "registration_id": null,
        "batchOffer": "HurryUp! Filling Fast",
        "level": "",
        "name": "PMP Certification Course",
        "youtubeUrl": "https://www.youtube.com/watch?v=4QGWfw8IqA4",
        "mode": "Live Virtual Classroom",
        "mode_const": "ONLINE",
        "early_bird_offer": null,
        "early_bird_offer_end_date": "",
        "early_bird_offer_value": null,
        "early_bird_offer_strike_price": null,
        "priceCurrency": "USD",
        "registration_close_on": "2024-10-25 00:00:00",
        "registration_end_days": 58,
        "registration_closed": false,
        "time_zone": "EST",
        "timing": "09:00 - 17:00",
        "event_id": "INL15607",
        "language": "English",
        "exam_included": false,
        "course_version": null,
        "course_version_name": null,
        "course_label": null,
        "course_accreditation_id": null,
        "course_price": "USD 1150",
        "course_offer_price": "USD 1150",
        "schedule_dates": [
          {
            "name": "Oct-2024",
            "year": "2024",
            "month": "Oct",
            "event_date": [
              {
                "date": "28",
                "day": "Mon"
              },
              {
                "date": "29",
                "day": "Tue"
              },
              {
                "date": "30",
                "day": "Wed"
              },
              {
                "date": "31",
                "day": "Thu"
              }
            ]
          }
        ],
        "service_event_id": 16532,
        "service_event_detail_id": 1660044,
        "schedule_price": 1150,
        "price": 1150,
        "months": [10],
        "event_start_date": "28-10-2024 00:00",
        "event_end_date": "31-10-2024 00:00",
        "event_type": "Weekday",
        "individual_offer_id": 0,
        "individual_discount": 0,
        "individual_offer_type": "",
        "purchased_participant_count": 0,
        "people_enrolled": "0 people have enrolled for this Course",
        "trainer_details": null,
        "is_first": false,
        "isSpecialOffer": false,
        "special_offer_value": null,
        "view_offers": [
          {
            "text": "Pay Once, Attend Twice"
          },
          {
            "text": "Group discount up to 15% applicable"
          }
        ],
        "event_coupon_code": null,
        "event_coupon_discount_percentage": null,
        "isCouponOffer": false,
        "confirm_run": null
      },
      {
        "edition": null,
        "exam": "Not Included",
        "registration_id": null,
        "batchOffer": "HurryUp! Filling Fast",
        "level": "",
        "name": "PMP Certification Course",
        "youtubeUrl": "https://www.youtube.com/watch?v=4QGWfw8IqA4",
        "mode": "Live Virtual Classroom",
        "mode_const": "ONLINE",
        "early_bird_offer": null,
        "early_bird_offer_end_date": "",
        "early_bird_offer_value": null,
        "early_bird_offer_strike_price": null,
        "priceCurrency": "USD",
        "registration_close_on": "2024-11-06 00:00:00",
        "registration_end_days": 70,
        "registration_closed": false,
        "time_zone": "EST",
        "timing": "09:00 - 17:00",
        "event_id": "INL15609",
        "language": "English",
        "exam_included": false,
        "course_version": null,
        "course_version_name": null,
        "course_label": null,
        "course_accreditation_id": null,
        "course_price": "USD 1150",
        "course_offer_price": "USD 1150",
        "schedule_dates": [
          {
            "name": "Nov-2024",
            "year": "2024",
            "month": "Nov",
            "event_date": [
              {
                "date": "09",
                "day": "Sat"
              },
              {
                "date": "10",
                "day": "Sun"
              },
              {
                "date": "16",
                "day": "Sat"
              },
              {
                "date": "17",
                "day": "Sun"
              }
            ]
          }
        ],
        "service_event_id": 16534,
        "service_event_detail_id": 1660278,
        "schedule_price": 1150,
        "price": 1150,
        "months": [11],
        "event_start_date": "09-11-2024 00:00",
        "event_end_date": "17-11-2024 00:00",
        "event_type": "Weekend",
        "individual_offer_id": 0,
        "individual_discount": 0,
        "individual_offer_type": "",
        "purchased_participant_count": 0,
        "people_enrolled": "0 people have enrolled for this Course",
        "trainer_details": null,
        "is_first": false,
        "isSpecialOffer": false,
        "special_offer_value": null,
        "view_offers": [
          {
            "text": "Pay Once, Attend Twice"
          },
          {
            "text": "Group discount up to 15% applicable"
          }
        ],
        "event_coupon_code": null,
        "event_coupon_discount_percentage": null,
        "isCouponOffer": false,
        "confirm_run": null
      },
      {
        "edition": null,
        "exam": "Not Included",
        "registration_id": null,
        "batchOffer": "HurryUp! Filling Fast",
        "level": "",
        "name": "PMP Certification Course",
        "youtubeUrl": "https://www.youtube.com/watch?v=4QGWfw8IqA4",
        "mode": "Live Virtual Classroom",
        "mode_const": "ONLINE",
        "early_bird_offer": null,
        "early_bird_offer_end_date": "",
        "early_bird_offer_value": null,
        "early_bird_offer_strike_price": null,
        "priceCurrency": "USD",
        "registration_close_on": "2024-11-08 00:00:00",
        "registration_end_days": 72,
        "registration_closed": false,
        "time_zone": "EST",
        "timing": "09:00 - 17:00",
        "event_id": "INL15608",
        "language": "English",
        "exam_included": false,
        "course_version": null,
        "course_version_name": null,
        "course_label": null,
        "course_accreditation_id": null,
        "course_price": "USD 1150",
        "course_offer_price": "USD 1150",
        "schedule_dates": [
          {
            "name": "Nov-2024",
            "year": "2024",
            "month": "Nov",
            "event_date": [
              {
                "date": "11",
                "day": "Mon"
              },
              {
                "date": "12",
                "day": "Tue"
              },
              {
                "date": "13",
                "day": "Wed"
              },
              {
                "date": "14",
                "day": "Thu"
              }
            ]
          }
        ],
        "service_event_id": 16533,
        "service_event_detail_id": 1660161,
        "schedule_price": 1150,
        "price": 1150,
        "months": [11],
        "event_start_date": "11-11-2024 00:00",
        "event_end_date": "14-11-2024 00:00",
        "event_type": "Weekday",
        "individual_offer_id": 0,
        "individual_discount": 0,
        "individual_offer_type": "",
        "purchased_participant_count": 0,
        "people_enrolled": "0 people have enrolled for this Course",
        "trainer_details": null,
        "is_first": false,
        "isSpecialOffer": false,
        "special_offer_value": null,
        "view_offers": [
          {
            "text": "Pay Once, Attend Twice"
          },
          {
            "text": "Group discount up to 15% applicable"
          }
        ],
        "event_coupon_code": null,
        "event_coupon_discount_percentage": null,
        "isCouponOffer": false,
        "confirm_run": null
      }
    ],
    "links": {
      "first": "https://stagingalpha.invensislearning.com/api/get-schedules/GENERIC%20COURSE/pmp-certification-training/us?page=1",
      "last": "https://stagingalpha.invensislearning.com/api/get-schedules/GENERIC%20COURSE/pmp-certification-training/us?page=4",
      "prev": null,
      "next": "https://stagingalpha.invensislearning.com/api/get-schedules/GENERIC%20COURSE/pmp-certification-training/us?page=2"
    },
    "meta": {
      "current_page": 1,
      "from": 1,
      "last_page": 4,
      "path": "https://stagingalpha.invensislearning.com/api/get-schedules/GENERIC%20COURSE/pmp-certification-training/us",
      "per_page": 4,
      "to": 4,
      "total": 13,
      "isCombined": false,
      "course_accreditation": "Premier Authorized Training Partner",
      "course_logo": "https://www.invensislearning.com/static/images/schedule-logo.png",
      "isCurrentMonth": false,
      "category_id": 2,
      "service_id": "353"
    }
  }